seventhJun19\TakeScreenshotTest.class
seleniumInterviewQA\ClassOne.class
com\wpl\qa\EndUserTests\HomePageTest.class
javaInterviewQA\SwapStrings.class
practiceTill21Jun\HeadlessBrowsing.class
com\wpl\qa\Mixed2\HandlingCalendarDdowns.class
javaInterviewQA\StringManipulation.class
javaInterviewQA\DifferentWaysOfIteratingArrayList.class
seventhJun19\MiscAlertsNpopUpHandling.class
com\wpl\qa\Mixed\HandleMiscPopUps.class
javaInterviewQA\IteratingArrayListDifferently.class
javaInterviewQA\Reversing_An_Integer1.class
seventhJun19\DynamicWebTableHandling.class
com\wpl\qa\test\TakingScreenshots.class
javaConceptsIvw\MercedezCar.class
javaConceptsIvw\ChildClass.class
javaInterviewQA\SwapIntegers.class
javaMethodOverriding_N_Overloading\TestCar.class
com\wpl\qa\EndUserTests\SupportPageTest.class
javaConceptsIvw\FinallyConcept.class
javaMethodOverriding_N_Overloading\Jaguar_Child.class
javaConceptsIvw\Icici.class
com\wpl\qa\AdminTests\AdminHomeTest.class
com\wpl\qa\Mixed2\HandlingMiscAlerts.class
practiceTill21Jun\TesNG_Concepts.class
com\wpl\qa\Mixed2\DynamicWebTableHandle.class
practiceTill21Jun\DynamicXpath.class
seventhJun19\DynamicXpath.class
seventhJun19\JavaScriptExecutorFunctions.class
seventhJun19\SimulationOfNavigation.class
javaInterviewQA\FindArmstrongNumber.class
javaConceptsIvw\ParentClass.class
JavaIvwQA2\JavaCases2.class
seventhJun19\ExplicitWaits.class
javaConceptsIvw\BaseClass.class
JavaIvwQA2\TestNGXml.class
com\wpl\qa\DealerTests\DealerHomeTest.class
com\wpl\qa\EndUserTests\SettingsPageTest.class
javaConceptsIvw\FinalizeConcept.class
com\wpl\qa\SuperAdminTests\SuperAdminHomeTest.class
javaConceptsIvw\FinalConcept.class
javaConceptsIvw\AbstactionItestCar.class
practiceTill21Jun\ExplicitWaiting.class
com\wpl\qa\Mixed2\BootStrapDdownHandle2.class
javaInterviewQA\FindPrimeNumbers.class
com\wpl\qa\Mixed\HandlingWebTables.class
javaInterviewQA\FactorialRecursiveAndNonRecursive.class
com\wpl\qa\test\AutomatedTestUpdate.class
javaConceptsIvw\Bank.class
seleniumSauceLabIntegration\SauceLabIntegration.class
com\wpl\qa\Mixed2\BasicAuthenticationHandling.class
com\wpl\qa\Mixed\HandlingFrames1.class
javaConceptsIvw\AbstractionTestBank.class
practiceTill21Jun\WebTableDynamic.class
JavaIvwQA2\JavaCases1.class
com\wpl\qa\EndUserTests\ConnectPageTest.class
javaConceptsIvw\Singleton.class
com\wpl\qa\Mixed\MixedFunctions.class
com\wpl\qa\test\WplLoginPageTest.class
seleniumGrid\GridClass1.class
javaConceptsIvw\Car.class
seventhJun19\LinksCountandText.class
javaInterviewQA\Reversing_A_String1.class
javaMethodOverriding_N_Overloading\Car_Parent.class
javaConceptsIvw\WebDSingleton.class
JavaIvwQA2\JavaCases4.class
com\wpl\qa\Mixed\DynamicWebTableHandling.class
com\wpl\qa\Mixed\HandleMiscPopUps3.class
javaInterviewQA\RemoveJunkCharFromString1.class
seventhJun19\HandlingFrames.class
javaInterviewQA\FindDuplicateWordsInString.class
javaInterviewQA\FindMissingNumberinArray.class
javaInterviewQA\FindLargestAndSmallestNumber1.class
seventhJun19\MouseEvents_N_ImplicitWait.class
javaInterviewQA\VerifyStringHasOnlyDigits.class
com\wpl\qa\Mixed2\HandleFrames.class
com\wpl\qa\EndUserTests\AnalyticsPageTest.class
com\wpl\qa\Mixed2\HandlingFrames.class
javaInterviewQA\FindDuplicateValueInArray.class
com\wpl\qa\Mixed\HandleMiscPopups2.class
com\wpl\qa\test\SenEmailsTest.class
com\wpl\qa\Mixed2\BootStrapDdownHandling.class
javaInterviewQA\VerifyANumberIsPalindrome.class
seventhJun19\HeadlessTesting.class
com\wpl\qa\test\Handling_DropDowns.class
JavaIvwQA2\JavaCases3.class
